Project 2 - Fruits
…
result <- httr::GET("fruityvice.com/api/fruit/all")
parsed <- as_tibble(fromJSON(rawToChar(result$content)))
as_tibble(parsed$nutritions) |> 
    mutate(name = parsed$name) |>
    select(name, everything())

# A tibble: 49 × 6
   name        calories   fat sugar carbohydrates protein
   <chr>          <int> <dbl> <dbl>         <dbl>   <dbl>
 1 Persimmon         81  0    18             18      0   
 2 Strawberry        29  0.4   5.4            5.5    0.8 
 3 Banana            96  0.2  17.2           22      1   
 4 Tomato            74  0.2   2.6            3.9    0.9 
 5 Pear              57  0.1  10             15      0.4 
 6 Durian           147  5.3   6.75          27.1    1.5 
 7 Blackberry        40  0.4   4.5            9      1.3 
 8 Lingonberry       50  0.34  5.74          11.3    0.75
 9 Kiwi              61  0.5   9             15      1.1 
10 Lychee            66  0.44 15             17      0.8 
# ℹ 39 more rows
…
}

get_api(fruit = "all")

# A tibble: 49 × 9
   Name        Family     Genus Order calories   fat sugar carbohydrates protein
   <chr>       <chr>      <chr> <chr>    <int> <dbl> <dbl>         <dbl>   <dbl>
 1 Persimmon   Ebenaceae  Dios… Rosa…       81  0    18             18      0   
 2 Strawberry  Rosaceae   Frag… Rosa…       29  0.4   5.4            5.5    0.8 
 3 Banana      Musaceae   Musa  Zing…       96  0.2  17.2           22      1   
 4 Tomato      Solanaceae Sola… Sola…       74  0.2   2.6            3.9    0.9 
 5 Pear        Rosaceae   Pyrus Rosa…       57  0.1  10             15      0.4 
 6 Durian      Malvaceae  Durio Malv…      147  5.3   6.75          27.1    1.5 
 7 Blackberry  Rosaceae   Rubus Rosa…       40  0.4   4.5            9      1.3 
 8 Lingonberry Ericaceae  Vacc… Eric…       50  0.34  5.74          11.3    0.75
 9 Kiwi        Actinidia… Apte… Stru…       61  0.5   9             15      1.1 
10 Lychee      Sapindace… Litc… Sapi…       66  0.44 15             17      0.8 
# ℹ 39 more rows
…
Now that we are able to query some data through the function, we can summarize the data is different ways.

Categorical Summaries

Contingency tables are summarize the relationship between categorical data. In this case, contingency tables can be used to look at the relationship between our fruits and their scientific names.

dat <- get_api()

A one-way contingency table can show how many of the fruits there are in the same family.

dat |>
  group_by(Family) |>
  summarise(count = n())

# A tibble: 26 × 2
   Family          count
   <chr>           <int>
 1 " Ebenaceae"        1
 2 "Actinidiaceae"     2
 3 "Anacardiaceae"     1
 4 "Annonaceae"        1
 5 "Betulaceae"        1
 6 "Bromeliaceae"      1
 7 "Cactaceae"         2
 8 "Caricaceae"        1
 9 "Clusiaceae"        1
10 "Cucurbitaceae"     4
# ℹ 16 more rows

This next table is a two-way contingency table showing how many of our fruits are of a specific genus and order.

dat |>
  group_by(Genus, Order) |>
  summarise(count = n())

`summarise()` has grouped output by 'Genus'. You can override using the
`.groups` argument.

# A tibble: 38 × 3
# Groups:   Genus [36]
   Genus      Order            count
   <chr>      <chr>            <int>
 1 Actinidia  Ericales             1
 2 Ananas     Poales               1
 3 Annonas    Rosales              1
 4 Apteryx    Struthioniformes     1
 5 Artocarpus Rosales              1
 6 Cactaceae  Caryophyllales       1
 7 Carica     Brassicales          1
 8 Citrullus  Cucurbitales         1
 9 Citrus     Sapindales           5
10 Corylus    Fagales              1
# ℹ 28 more rows

Numerical Summaries

The numerical data from the data set is the nutritional values of each fruit.

We can first see the measures of center of each of the nutritional value through the mean and the median.

dat |>
  group_by(Family) |>
  summarize(across(where(is.numeric), 
                   list("mean" = ~ round(mean(.x, na.rm = TRUE), 2), 
                        "median" = ~ round(median(.x, na.rm = TRUE), 2)), 
                   .names = "{.fn}_{.col}"))

# A tibble: 26 × 11
   Family          mean_calories median_calories mean_fat median_fat mean_sugar
   <chr>                   <dbl>           <dbl>    <dbl>      <dbl>      <dbl>
 1 " Ebenaceae"             70                70     0.2        0.2       13   
 2 "Actinidiaceae"          61                61     0.5        0.5        8.95
 3 "Anacardiaceae"          60                60     0.38       0.38      13.7 
 4 "Annonaceae"             92                92     0.29       0.29       3.4 
 5 "Betulaceae"            628               628    61         61          4.3 
 6 "Bromeliaceae"           50                50     0.12       0.12       9.85
 7 "Cactaceae"              48                48     0.95       0.95       5.5 
 8 "Caricaceae"             39                39     0.3        0.3        4.4 
 9 "Clusiaceae"             73                73     0.58       0.58      16.1 
10 "Cucurbitaceae"          33.2              32     0.44       0.25       4.45
# ℹ 16 more rows
# ℹ 5 more variables: median_sugar <dbl>, mean_carbohydrates <dbl>,
#   median_carbohydrates <dbl>, mean_protein <dbl>, median_protein <dbl>
…
